verilog work "../vm1/src/myalu.v"
verilog work "../vm1/src/myidc.v"
verilog work "../vm1/src/datapath.v"
verilog work "../vm1/src/control11.v"
verilog work "../vm1/src/vm1.v"
verilog work "../src/vptimer.v"
verilog work "../src/translate.v"
verilog work "../src/ps2_kbd.v"
verilog work "../src/memmap.v"
verilog work "../src/vga1.v"
verilog work "../src/sdcard/spi.v"
verilog work "../src/kbd_intf.v"
verilog work "../src/bkcore.v"
verilog work "ipcore_dir/boot_brom.v"
verilog work "../src/unoxt/leds.v"
verilog work "../src/unoxt/joystick.v"
verilog work "../src/bk0010.v"
verilog work "ipcore_dir/pll.v"
verilog work "../src/unoxt/unoxt_top.v"
