Release 14.7 - WebTalk (P.20131013)
Copyright (c) 1995-2010 Xilinx, Inc.  All rights reserved.

Project Information
--------------------
ProjectID=9845A785805AD3726AEB245FC4A3AEBC
ProjectIteration=26

WebTalk Summary
----------------
INFO:WebTalk:3 - WebTalk is disabled.

INFO:WebTalk:9 - WebTalk Install setting is OFF.
INFO:WebTalk:7 - WebTalk User setting is OFF.
